{
  "data": [
    {
      "id": 1,
      "userId": 1,
      "bookId": 1,
      "message": "Quae voluptas quaerat umerus constans ab.",
      "rating": 5,
      "createdAt": "Wed Nov 13 2024 05:52:25 GMT+0700 (GMT+07:00)",
      "updatedAt": "Wed Aug 21 2024 18:22:52 GMT+0700 (GMT+07:00)"
    }
  ],
  "pagination": {
    "totalItems": 400,
    "totalPages": 40,
    "currentPage": 1,
    "pageSize": 10,
    "hasNextPage": true,
    "hasPreviousPage": false
  },
  "status": 200
}
